Task 3: 基于RFM的客户价值分层分析
…
    label[rankR == "高" & rankF == "高" & rankM == "高"] = "重要价值客户"
    label[rankR == "高" & rankF == "低" & rankM == "高"] = "重要发展客户"  
    label[rankR == "低" & rankF == "高" & rankM == "高"] = "重要保持客户"
    label[rankR == "低" & rankF == "低" & rankM == "高"] = "重要挽留客户"
    
    label[rankR == "高" & rankF == "高" & rankM == "低"] = "一般价值客户"
    label[rankR == "高" & rankF == "低" & rankM == "低"] = "一般发展客户"  
    label[rankR == "低" & rankF == "高" & rankM == "低"] = "一般保持客户"
    label[rankR == "低" & rankF == "低" & rankM == "低"] = "一般挽留客户"
    
  })
  
  rfm_lab

## # A tibble: 2,848 x 13
## # Groups:   account_id, operation [2,848]
##    operation account_id recency    frequency monetary rInternal  Rece  Freq
##    <chr>          <int> <date>         <int>    <dbl>     <int> <int> <int>
##  1 loan            2378 1998-06-23        11   189095        -6     5     4
##  2 loan             704 1998-06-12         6   113601       -17     4     2
##  3 loan            3818 1998-06-09         6   112879       -20     3     2
##  4 loan            2632 1998-06-09         6    92716       -20     3     2
##  5 loan            1539 1998-06-06        13   365559       -23     2     4
##  6 loan            2484 1998-06-12         6    96063       -17     4     2
##  7 loan            1695 1998-06-06        19   541345       -23     2     4
##  8 loan            1726 1998-06-13         6    90785       -16     4     2
##  9 loan             485 1998-06-05         8   240098       -24     2     3
## 10 loan             652 1998-06-09         8    99331       -20     3     3
## # ... with 2,838 more rows, and 5 more variables: Mone <int>, rankR <chr>,
## #   rankF <chr>, rankM <chr>, label <chr>
…
